Graphical data analysis
…
Categorical variables are discrete variables with a fixed set of possible values.

Types of charts

Bar chart

A bar chart is pretty simple: one bar for each value of the variable, and the height of the bar is equal to the number of obsrvations falling in that category.

Let’s consider a sample of data from the General Social Survey, which is a long-running US survey conducted by NORC at the University of Chicago. The survey has thousands of questions about social and political behavior, and is one of the most important surveys in social science.

library(forcats)
gss_cat

## # A tibble: 21,483 x 9
##     year marital     age race  rincome   partyid   relig   denom   tvhours
##    <int> <fct>     <int> <fct> <fct>     <fct>     <fct>   <fct>     <int>
##  1  2000 Never ma…    26 White $8000 to… Ind,near… Protes… Southe…      12
##  2  2000 Divorced     48 White $8000 to… Not str … Protes… Baptis…      NA
##  3  2000 Widowed      67 White Not appl… Independ… Protes… No den…       2
##  4  2000 Never ma…    39 White Not appl… Ind,near… Orthod… Not ap…       4
##  5  2000 Divorced     25 White Not appl… Not str … None    Not ap…       1
##  6  2000 Married      25 White $20000 -… Strong d… Protes… Southe…      NA
##  7  2000 Never ma…    36 White $25000 o… Not str … Christ… Not ap…       3
##  8  2000 Divorced     44 White $7000 to… Ind,near… Protes… Luther…      NA
##  9  2000 Married      44 White $25000 o… Not str … Protes… Other         0
## 10  2000 Married      47 White $25000 o… Strong r… Protes… Southe…       3
## # ... with 21,473 more rows
…
