Ordinary least squares
…
Notice that the structure of the resulting object is a tidy data frame. Every row contains a single parameter, every column contains a single statistic, and every cell contains exactly one value.

augment()

augment() adds columns to the original data that was modeled. This could include predictions, residuals, and other observation-level statistics.

augment(south) %>%
  as_tibble()

## # A tibble: 50 x 10
##    cigarettes cig_tax south .fitted .se.fit .resid   .hat .sigma .cooksd
##  *      <dbl>   <dbl> <dbl>   <dbl>   <dbl>  <dbl>  <dbl>  <dbl>   <dbl>
##  1      10.0    1.03  1        9.47   0.768  0.569 0.0775   2.79 1.29e-3
##  2      19.0    0.3   1       10.1    0.716  8.84  0.0674   2.44 2.65e-1
##  3       8.16   0.36  1       10.1    0.706 -1.90  0.0654   2.77 1.18e-2
##  4      12.4    0.55  1        9.89   0.690  2.53  0.0625   2.76 1.99e-2
##  5       6.26   0.44  0        7.26   0.792 -0.998 0.0824   2.78 4.27e-3
##  6       6.22   2     0        5.89   0.687  0.329 0.0620   2.79 3.35e-4
##  7       9.68   0.17  0        7.49   0.956  2.19  0.120    2.77 3.25e-2
##  8       3.58   0.695 0        7.03   0.653 -3.45  0.0560   2.74 3.28e-2
##  9       9.35   0.18  1       10.2    0.744 -0.866 0.0728   2.79 2.78e-3
## 10       4.92   0.91  0        6.85   0.557 -1.93  0.0407   2.77 7.19e-3
## # ... with 40 more rows, and 1 more variable: .std.resid <dbl>
…
