Optimization
…
# define the log-likelihood function for a normal distribution
log.like <- function(mu, sigma.2, y){
    part1 <- - (1 / (2 * sigma.2)) * sum((y - mu)^2) 
    part2 <- - (length(y)/2) * log(sigma.2)         
    out <- part1 + part2
    return(out)
    }

# define search space
(search_space <- expand.grid(mu = seq(-2, 2, by = .01),
            sigma2 = seq(8^2, 12^2, by = .1)) %>%
  as_tibble)

## # A tibble: 321,201 x 2
##       mu sigma2
##    <dbl>  <dbl>
##  1 -2        64
##  2 -1.99     64
##  3 -1.98     64
##  4 -1.97     64
##  5 -1.96     64
##  6 -1.95     64
##  7 -1.94     64
##  8 -1.93     64
##  9 -1.92     64
## 10 -1.91     64
## # ... with 321,191 more rows
…
