Discrete random variables
…
# store in a data frame
data_frame(x = rbinom(1000, size = 10, prob = .5))

## # A tibble: 1,000 x 1
##        x
##    <int>
##  1     7
##  2     5
##  3     3
##  4     4
##  5     6
##  6     5
##  7     5
##  8     3
##  9     8
## 10     8
## # ... with 990 more rows
…
